module gitlab.com/sambayoncaruzzo/to-do

go 1.18

require (
	github.com/google/uuid v1.3.0
	github.com/stretchr/testify v1.7.2
)

require (
	github.com/davecgh/go-spew v1.1.0 // indirect
	github.com/inconshreveable/mousetrap v1.0.0 // indirect
	github.com/pmezard/go-difflib v1.0.0 // indirect
	github.com/spf13/cobra v1.5.0 // indirect
	github.com/spf13/pflag v1.0.5 // indirect
	gopkg.in/yaml.v3 v3.0.1 // indirect
)
